{
    "name": "Controls",
    "maps": [
        {
            "name": "Player",
            "id": "359fd48e-e67b-410e-bb19-6a9e61a0175b",
            "actions": [
                {
                    "name": "Movement",
                    "type": "Value",
                    "id": "9b715c0e-d424-40b7-b101-1f8f4b590ba5",
                    "expectedControlType": "Vector2",
                    "processors": "",
                    "interactions": "",
                    "initialStateCheck": true
                },
                {
                    "name": "PointerPosition",
                    "type": "Value",
                    "id": "d8f1fe16-320b-424c-b229-0cc58e5aa291",
                    "expectedControlType": "Vector2",
                    "processors": "",
                    "interactions": "",
                    "initialStateCheck": true
                },
                {
                    "name": "Attack",
                    "type": "Button",
                    "id": "ee9b9a04-261d-4d6d-b734-821333f84567",
                    "expectedControlType": "Button",
                    "processors": "",
                    "interactions": "",
                    "initialStateCheck": true
                },
                {
                    "name": "Mouse",
                    "type": "Value",
                    "id": "a60ee5a6-dbd3-46ba-9e2d-6fb554f26263",
                    "expectedControlType": "Vector2",
                    "processors": "",
                    "interactions": "",
                    "initialStateCheck": true
                }
            ],
            "bindings": [
                {
                    "name": "WASD",
                    "id": "a8dd1565-fca1-4e9f-9a79-e34325a26d3e",
                    "path": "2DVector",
                    "interactions": "",
                    "processors": "",
                    "groups": "",
                    "action": "Movement",
                    "isComposite": true,
                    "isPartOfComposite": false
                },
                {
                    "name": "up",
                    "id": "498eb78b-56b3-4dbe-9fb6-e53d4cfcea03",
                    "path": "<Keyboard>/w",
                    "interactions": "",
                    "processors": "",
                    "groups": "",
                    "action": "Movement",
                    "isComposite": false,
                    "isPartOfComposite": true
                },
                {
                    "name": "down",
                    "id": "5886ec7a-1b63-4bcb-b789-026c001bffe1",
                    "path": "<Keyboard>/s",
                    "interactions": "",
                    "processors": "",
                    "groups": "",
                    "action": "Movement",
                    "isComposite": false,
                    "isPartOfComposite": true
                },
                {
                    "name": "left",
                    "id": "8374ec78-6fb6-48e9-8400-fe6f92b798c4",
                    "path": "<Keyboard>/a",
                    "interactions": "",
                    "processors": "",
                    "groups": "",
                    "action": "Movement",
                    "isComposite": false,
                    "isPartOfComposite": true
                },
                {
                    "name": "right",
                    "id": "7b300b21-3744-48a3-b187-6f55f69543f0",
                    "path": "<Keyboard>/d",
                    "interactions": "",
                    "processors": "",
                    "groups": "",
                    "action": "Movement",
                    "isComposite": false,
                    "isPartOfComposite": true
                },
                {
                    "name": "Arrows",
                    "id": "289f27d8-e011-495a-8bfc-46d01c36480c",
                    "path": "2DVector",
                    "interactions": "",
                    "processors": "",
                    "groups": "",
                    "action": "Movement",
                    "isComposite": true,
                    "isPartOfComposite": false
                },
                {
                    "name": "up",
                    "id": "4597ed4e-9e0c-445a-b423-c4c95ce293ff",
                    "path": "<Keyboard>/upArrow",
                    "interactions": "",
                    "processors": "",
                    "groups": "",
                    "action": "Movement",
                    "isComposite": false,
                    "isPartOfComposite": true
                },
                {
                    "name": "down",
                    "id": "2682b326-013f-44ae-89a3-e7fc0a03a402",
                    "path": "<Keyboard>/downArrow",
                    "interactions": "",
                    "processors": "",
                    "groups": "",
                    "action": "Movement",
                    "isComposite": false,
                    "isPartOfComposite": true
                },
                {
                    "name": "left",
                    "id": "826b2c6c-7b1f-42e7-9e8d-3b57b499612f",
                    "path": "<Keyboard>/leftArrow",
                    "interactions": "",
                    "processors": "",
                    "groups": "",
                    "action": "Movement",
                    "isComposite": false,
                    "isPartOfComposite": true
                },
                {
                    "name": "right",
                    "id": "c9f98ddb-51c7-4359-a5e2-2bc5c30f328d",
                    "path": "<Keyboard>/rightArrow",
                    "interactions": "",
                    "processors": "",
                    "groups": "",
                    "action": "Movement",
                    "isComposite": false,
                    "isPartOfComposite": true
                },
                {
                    "name": "",
                    "id": "cfb62de4-9452-49e2-81eb-97aa0165081a",
                    "path": "<Mouse>/position",
                    "interactions": "",
                    "processors": "",
                    "groups": "",
                    "action": "PointerPosition",
                    "isComposite": false,
                    "isPartOfComposite": false
                },
                {
                    "name": "",
                    "id": "3b952389-585a-49fb-a120-ef06b16081b5",
                    "path": "<Mouse>/leftButton",
                    "interactions": "",
                    "processors": "",
                    "groups": "",
                    "action": "Attack",
                    "isComposite": false,
                    "isPartOfComposite": false
                },
                {
                    "name": "",
                    "id": "b4f37883-c79e-4ca0-aa2b-ea85ac360415",
                    "path": "<Mouse>/position",
                    "interactions": "",
                    "processors": "",
                    "groups": "",
                    "action": "Mouse",
                    "isComposite": false,
                    "isPartOfComposite": false
                }
            ]
        },
        {
            "name": "PauseMenu",
            "id": "af1b5080-4765-47b6-a6b4-27f58287c227",
            "actions": [
                {
                    "name": "New action",
                    "type": "Button",
                    "id": "b05d3241-9abb-4de6-8eec-3d3371ab1a12",
                    "expectedControlType": "Button",
                    "processors": "",
                    "interactions": "",
                    "initialStateCheck": false
                }
            ],
            "bindings": [
                {
                    "name": "",
                    "id": "fe1ff76b-c3e5-4e94-ad1a-cb740364059d",
                    "path": "",
                    "interactions": "",
                    "processors": "",
                    "groups": "",
                    "action": "New action",
                    "isComposite": false,
                    "isPartOfComposite": false
                }
            ]
        }
    ],
    "controlSchemes": []
}