%YAML 1.1
%TAG !u! tag:unity3d.com,2011:
--- !u!1045 &1
EditorBuildSettings:
  m_ObjectHideFlags: 0
  serializedVersion: 2
  m_Scenes:
  - enabled: 1
    path: Assets/Scenes/StartMenu.unity
    guid: 3fe5b559b63afd44287214c3dc49f139
  - enabled: 0
    path: Assets/Scenes/Level1.unity
    guid: 2cda990e2423bbf4892e6590ba056729
  - enabled: 1
    path: Assets/Scenes/sam-n-jam.unity
    guid: c66c8afdd7c518042895319458d11a1a
  m_configObjects: {}
